[gd_scene load_steps=13 format=2]

[ext_resource path="res://Assets/Tilesets/grass2_tileset.png" type="Texture" id=1]
[ext_resource path="res://Assets/Water/WaterTexture.tres" type="Texture" id=2]
[ext_resource path="res://Assets/Tilesets/grass1_tileset.png" type="Texture" id=3]

[sub_resource type="ConvexPolygonShape2D" id=2]
points = PoolVector2Array( 0, 0, 16, 0, 16, 16, 0, 16 )

[sub_resource type="ConvexPolygonShape2D" id=3]
points = PoolVector2Array( 0, 0, 16, 0, 16, 16, 0, 16 )

[sub_resource type="ConvexPolygonShape2D" id=4]
points = PoolVector2Array( 0, 0, 16, 0, 16, 16, 0, 16 )

[sub_resource type="ConvexPolygonShape2D" id=5]
points = PoolVector2Array( 0, 0, 16, 0, 16, 16, 0, 16 )

[sub_resource type="ConvexPolygonShape2D" id=6]
points = PoolVector2Array( 0, 0, 16, 0, 16, 16, 0, 16 )

[sub_resource type="ConvexPolygonShape2D" id=7]
points = PoolVector2Array( 0, 0, 16, 0, 16, 16, 0, 16 )

[sub_resource type="ConvexPolygonShape2D" id=8]
points = PoolVector2Array( 0, 0, 16, 0, 16, 16, 0, 16 )

[sub_resource type="ConvexPolygonShape2D" id=9]
points = PoolVector2Array( 0, 0, 16, 0, 16, 16, 0, 16 )

[sub_resource type="TileSet" id=1]
0/name = "GrassAtlas"
0/texture = ExtResource( 3 )
0/tex_offset = Vector2( 0, 0 )
0/modulate = Color( 1, 1, 1, 1 )
0/region = Rect2( 48, 0, 16, 64 )
0/tile_mode = 2
0/autotile/icon_coordinate = Vector2( 0, 0 )
0/autotile/tile_size = Vector2( 16, 16 )
0/autotile/spacing = 0
0/autotile/occluder_map = [  ]
0/autotile/navpoly_map = [  ]
0/autotile/priority_map = [  ]
0/autotile/z_index_map = [  ]
0/occluder_offset = Vector2( 0, 0 )
0/navigation_offset = Vector2( 0, 0 )
0/shape_offset = Vector2( 0, 0 )
0/shape_transform = Transform2D( 1, 0, 0, 1, 0, 0 )
0/shape_one_way = false
0/shape_one_way_margin = 0.0
0/shapes = [  ]
0/z_index = 0
1/name = "SandAutotile"
1/texture = ExtResource( 3 )
1/tex_offset = Vector2( 0, 0 )
1/modulate = Color( 1, 1, 1, 1 )
1/region = Rect2( 0, 0, 48, 80 )
1/tile_mode = 1
1/autotile/bitmask_mode = 1
1/autotile/bitmask_flags = [ Vector2( 0, 0 ), 432, Vector2( 0, 1 ), 438, Vector2( 0, 2 ), 54, Vector2( 0, 3 ), 255, Vector2( 0, 4 ), 507, Vector2( 1, 0 ), 504, Vector2( 1, 1 ), 511, Vector2( 1, 2 ), 63, Vector2( 1, 3 ), 447, Vector2( 1, 4 ), 510, Vector2( 2, 0 ), 216, Vector2( 2, 1 ), 219, Vector2( 2, 2 ), 27 ]
1/autotile/icon_coordinate = Vector2( 0, 0 )
1/autotile/tile_size = Vector2( 16, 16 )
1/autotile/spacing = 0
1/autotile/occluder_map = [  ]
1/autotile/navpoly_map = [  ]
1/autotile/priority_map = [  ]
1/autotile/z_index_map = [  ]
1/occluder_offset = Vector2( 0, 0 )
1/navigation_offset = Vector2( 0, 0 )
1/shape_offset = Vector2( 0, 0 )
1/shape_transform = Transform2D( 1, 0, 0, 1, 0, 0 )
1/shape_one_way = false
1/shape_one_way_margin = 0.0
1/shapes = [  ]
1/z_index = 0
2/name = "WaterAutotile"
2/texture = ExtResource( 2 )
2/tex_offset = Vector2( 0, 0 )
2/modulate = Color( 1, 1, 1, 1 )
2/region = Rect2( 0, 0, 48, 48 )
2/tile_mode = 1
2/autotile/bitmask_mode = 0
2/autotile/bitmask_flags = [ Vector2( 0, 0 ), 256, Vector2( 0, 1 ), 260, Vector2( 0, 2 ), 4, Vector2( 1, 0 ), 320, Vector2( 1, 1 ), 325, Vector2( 1, 2 ), 5, Vector2( 2, 0 ), 64, Vector2( 2, 1 ), 65, Vector2( 2, 2 ), 1 ]
2/autotile/icon_coordinate = Vector2( 0, 0 )
2/autotile/tile_size = Vector2( 16, 16 )
2/autotile/spacing = 0
2/autotile/occluder_map = [  ]
2/autotile/navpoly_map = [  ]
2/autotile/priority_map = [  ]
2/autotile/z_index_map = [  ]
2/occluder_offset = Vector2( 0, 0 )
2/navigation_offset = Vector2( 0, 0 )
2/shape_offset = Vector2( 0, 0 )
2/shape_transform = Transform2D( 1, 0, 0, 1, 0, 0 )
2/shape = SubResource( 2 )
2/shape_one_way = false
2/shape_one_way_margin = 1.0
2/shapes = [ {
"autotile_coord": Vector2( 0, 2 ),
"one_way": false,
"one_way_margin": 1.0,
"shape": SubResource( 2 ),
"shape_transform": Transform2D( 1, 0, 0, 1, 0, 0 )
}, {
"autotile_coord": Vector2( 0, 1 ),
"one_way": false,
"one_way_margin": 1.0,
"shape": SubResource( 3 ),
"shape_transform": Transform2D( 1, 0, 0, 1, 0, 0 )
}, {
"autotile_coord": Vector2( 0, 0 ),
"one_way": false,
"one_way_margin": 1.0,
"shape": SubResource( 4 ),
"shape_transform": Transform2D( 1, 0, 0, 1, 0, 0 )
}, {
"autotile_coord": Vector2( 1, 0 ),
"one_way": false,
"one_way_margin": 1.0,
"shape": SubResource( 5 ),
"shape_transform": Transform2D( 1, 0, 0, 1, 0, 0 )
}, {
"autotile_coord": Vector2( 2, 0 ),
"one_way": false,
"one_way_margin": 1.0,
"shape": SubResource( 6 ),
"shape_transform": Transform2D( 1, 0, 0, 1, 0, 0 )
}, {
"autotile_coord": Vector2( 2, 1 ),
"one_way": false,
"one_way_margin": 1.0,
"shape": SubResource( 7 ),
"shape_transform": Transform2D( 1, 0, 0, 1, 0, 0 )
}, {
"autotile_coord": Vector2( 2, 2 ),
"one_way": false,
"one_way_margin": 1.0,
"shape": SubResource( 8 ),
"shape_transform": Transform2D( 1, 0, 0, 1, 0, 0 )
}, {
"autotile_coord": Vector2( 1, 2 ),
"one_way": false,
"one_way_margin": 1.0,
"shape": SubResource( 9 ),
"shape_transform": Transform2D( 1, 0, 0, 1, 0, 0 )
} ]
2/z_index = 0
3/name = "Grass2 Autotile"
3/texture = ExtResource( 1 )
3/tex_offset = Vector2( 0, 0 )
3/modulate = Color( 1, 1, 1, 1 )
3/region = Rect2( 0, 0, 48, 80 )
3/tile_mode = 1
3/autotile/bitmask_mode = 1
3/autotile/bitmask_flags = [ Vector2( 0, 0 ), 432, Vector2( 0, 1 ), 438, Vector2( 0, 2 ), 54, Vector2( 0, 3 ), 255, Vector2( 0, 4 ), 507, Vector2( 1, 0 ), 504, Vector2( 1, 1 ), 511, Vector2( 1, 2 ), 63, Vector2( 1, 3 ), 447, Vector2( 1, 4 ), 510, Vector2( 2, 0 ), 216, Vector2( 2, 1 ), 219, Vector2( 2, 2 ), 27 ]
3/autotile/icon_coordinate = Vector2( 0, 0 )
3/autotile/tile_size = Vector2( 16, 16 )
3/autotile/spacing = 0
3/autotile/occluder_map = [  ]
3/autotile/navpoly_map = [  ]
3/autotile/priority_map = [  ]
3/autotile/z_index_map = [  ]
3/occluder_offset = Vector2( 0, 0 )
3/navigation_offset = Vector2( 0, 0 )
3/shape_offset = Vector2( 0, 0 )
3/shape_transform = Transform2D( 1, 0, 0, 1, 0, 0 )
3/shape_one_way = false
3/shape_one_way_margin = 0.0
3/shapes = [  ]
3/z_index = 0

[node name="OverworldTileMap" type="TileMap"]
tile_set = SubResource( 1 )
cell_size = Vector2( 16, 16 )
collision_layer = 2
collision_mask = 0
format = 1
tile_data = PoolIntArray( -1507334, 0, 65536, -1507333, 0, 131072, -1507332, 0, 0, -1507331, 0, 65536, -1507330, 0, 131072, -1507329, 0, 131072, -1572864, 0, 196608, -1572863, 0, 0, -1572862, 0, 196608, -1572861, 0, 0, -1572860, 0, 65536, -1572859, 0, 0, -1572858, 0, 65536, -1572857, 0, 196608, -1572856, 0, 65536, -1572855, 0, 65536, -1572854, 0, 0, -1572853, 0, 0, -1572852, 0, 131072, -1572851, 0, 196608, -1572850, 0, 65536, -1572849, 0, 131072, -1572848, 0, 0, -1572847, 0, 196608, -1572846, 0, 0, -1572845, 0, 196608, -1572844, 0, 196608, -1572843, 0, 196608, -1572842, 0, 65536, -1572841, 0, 65536, -1572840, 0, 0, -1572839, 0, 0, -1572838, 0, 196608, -1572837, 0, 196608, -1572836, 0, 131072, -1572835, 0, 196608, -1572834, 0, 196608, -1572833, 0, 131072, -1572832, 0, 131072, -1572831, 0, 131072, -1441798, 0, 196608, -1441797, 0, 196608, -1441796, 0, 0, -1441795, 0, 0, -1441794, 0, 196608, -1441793, 0, 196608, -1507328, 0, 65536, -1507327, 0, 196608, -1507326, 0, 65536, -1507325, 0, 0, -1507324, 0, 131072, -1507323, 0, 196608, -1507322, 0, 131072, -1507321, 0, 196608, -1507320, 0, 65536, -1507319, 0, 196608, -1507318, 0, 65536, -1507317, 0, 0, -1507316, 0, 196608, -1507315, 0, 65536, -1507314, 0, 131072, -1507313, 0, 0, -1507312, 0, 0, -1507311, 0, 196608, -1507310, 0, 65536, -1507309, 0, 65536, -1507308, 0, 196608, -1507307, 0, 65536, -1507306, 0, 65536, -1507305, 0, 196608, -1507304, 0, 0, -1507303, 0, 196608, -1507302, 0, 65536, -1507301, 0, 0, -1507300, 0, 131072, -1507299, 0, 196608, -1507298, 0, 131072, -1507297, 0, 0, -1507296, 0, 196608, -1507295, 0, 0, -1376262, 0, 0, -1376261, 0, 0, -1376260, 0, 0, -1376259, 0, 0, -1376258, 0, 131072, -1376257, 0, 65536, -1441792, 0, 0, -1441791, 0, 131072, -1441790, 0, 131072, -1441789, 0, 196608, -1441788, 0, 0, -1441787, 0, 196608, -1441786, 0, 0, -1441785, 0, 196608, -1441784, 0, 65536, -1441783, 0, 0, -1441782, 0, 131072, -1441781, 0, 196608, -1441780, 0, 0, -1441779, 0, 0, -1441778, 0, 65536, -1441777, 0, 0, -1441776, 0, 0, -1441775, 0, 0, -1441774, 0, 65536, -1441773, 0, 0, -1441772, 0, 131072, -1441771, 0, 131072, -1441770, 0, 0, -1441769, 0, 65536, -1441768, 0, 0, -1441767, 0, 65536, -1441766, 0, 131072, -1441765, 0, 65536, -1441764, 0, 0, -1441763, 0, 196608, -1441762, 0, 131072, -1441761, 0, 65536, -1441760, 0, 131072, -1441759, 0, 131072, -1310726, 0, 131072, -1310725, 0, 131072, -1310724, 0, 131072, -1310723, 0, 0, -1310722, 0, 65536, -1310721, 0, 65536, -1376256, 0, 131072, -1376255, 0, 0, -1376254, 0, 65536, -1376253, 0, 131072, -1376252, 0, 196608, -1376251, 0, 0, -1376250, 0, 65536, -1376249, 0, 196608, -1376248, 0, 131072, -1376247, 0, 0, -1376246, 0, 65536, -1376245, 0, 196608, -1376244, 0, 65536, -1376243, 0, 0, -1376242, 0, 196608, -1376241, 0, 131072, -1376240, 0, 196608, -1376239, 0, 131072, -1376238, 0, 65536, -1376237, 0, 0, -1376236, 0, 196608, -1376235, 0, 65536, -1376234, 0, 131072, -1376233, 0, 196608, -1376232, 0, 65536, -1376231, 0, 0, -1376230, 0, 131072, -1376229, 0, 65536, -1376228, 0, 196608, -1376227, 0, 65536, -1376226, 0, 0, -1376225, 0, 0, -1376224, 0, 0, -1376223, 0, 131072, -1245190, 0, 0, -1245189, 0, 0, -1245188, 0, 65536, -1245187, 0, 0, -1245186, 0, 131072, -1245185, 0, 65536, -1310720, 0, 196608, -1310719, 0, 0, -1310718, 0, 0, -1310717, 0, 65536, -1310716, 0, 196608, -1310715, 0, 131072, -1310714, 0, 0, -1310713, 0, 196608, -1310712, 0, 0, -1310711, 0, 131072, -1310710, 0, 196608, -1310709, 0, 196608, -1310708, 0, 131072, -1310707, 0, 0, -1310706, 0, 65536, -1310705, 0, 131072, -1310704, 0, 131072, -1310703, 0, 131072, -1310702, 0, 196608, -1310701, 0, 0, -1310700, 0, 65536, -1310699, 0, 0, -1310698, 0, 131072, -1310697, 0, 131072, -1310696, 0, 131072, -1310695, 0, 196608, -1310694, 0, 0, -1310693, 0, 0, -1310692, 0, 131072, -1310691, 0, 131072, -1310690, 0, 65536, -1310689, 0, 65536, -1310688, 0, 131072, -1310687, 0, 131072, -1179654, 0, 65536, -1179653, 0, 65536, -1179652, 0, 196608, -1179651, 0, 0, -1179650, 0, 196608, -1179649, 0, 196608, -1245184, 0, 65536, -1245183, 0, 196608, -1245182, 0, 131072, -1245181, 0, 65536, -1245180, 0, 196608, -1245179, 0, 65536, -1245178, 0, 0, -1245177, 0, 65536, -1245176, 0, 196608, -1245175, 0, 196608, -1245174, 0, 65536, -1245173, 0, 65536, -1245172, 0, 196608, -1245171, 0, 65536, -1245170, 0, 65536, -1245169, 0, 65536, -1245168, 0, 131072, -1245167, 0, 65536, -1245166, 0, 131072, -1245165, 0, 65536, -1245164, 0, 131072, -1245163, 0, 131072, -1245162, 0, 196608, -1245161, 0, 0, -1245160, 0, 131072, -1245159, 0, 0, -1245158, 0, 131072, -1245157, 0, 0, -1245156, 0, 0, -1245155, 0, 131072, -1245154, 0, 65536, -1245153, 0, 131072, -1245152, 0, 65536, -1245151, 0, 131072, -1114118, 0, 131072, -1114117, 0, 65536, -1114116, 0, 0, -1114115, 0, 0, -1114114, 0, 0, -1114113, 0, 0, -1179648, 0, 196608, -1179647, 0, 65536, -1179646, 0, 196608, -1179645, 0, 65536, -1179644, 0, 196608, -1179643, 0, 131072, -1179642, 0, 0, -1179641, 0, 0, -1179640, 0, 65536, -1179639, 0, 0, -1179638, 0, 196608, -1179637, 0, 196608, -1179636, 0, 131072, -1179635, 0, 0, -1179634, 0, 196608, -1179633, 0, 0, -1179632, 0, 131072, -1179631, 0, 196608, -1179630, 0, 65536, -1179629, 0, 0, -1179628, 0, 65536, -1179627, 0, 131072, -1179626, 0, 0, -1179625, 0, 65536, -1179624, 0, 131072, -1179623, 0, 65536, -1179622, 0, 0, -1179621, 0, 0, -1179620, 0, 0, -1179619, 0, 196608, -1179618, 0, 196608, -1179617, 0, 65536, -1179616, 0, 0, -1179615, 0, 0, -1048582, 0, 131072, -1048581, 0, 131072, -1048580, 0, 196608, -1048579, 0, 196608, -1048578, 0, 196608, -1048577, 0, 0, -1114112, 0, 196608, -1114111, 0, 65536, -1114110, 0, 0, -1114109, 0, 196608, -1114108, 0, 0, -1114107, 0, 0, -1114106, 0, 0, -1114105, 0, 0, -1114104, 0, 196608, -1114103, 0, 131072, -1114102, 0, 0, -1114101, 0, 0, -1114100, 0, 0, -1114099, 0, 196608, -1114098, 0, 0, -1114097, 0, 196608, -1114096, 0, 0, -1114095, 0, 0, -1114094, 0, 0, -1114093, 0, 65536, -1114092, 0, 65536, -1114091, 0, 131072, -1114090, 0, 131072, -1114089, 0, 0, -1114088, 0, 65536, -1114087, 0, 65536, -1114086, 0, 131072, -1114085, 0, 0, -1114084, 0, 65536, -1114083, 0, 0, -1114082, 0, 131072, -1114081, 0, 196608, -1114080, 0, 196608, -1114079, 0, 0, -983046, 0, 65536, -983045, 0, 131072, -983044, 0, 196608, -983043, 0, 65536, -983042, 0, 0, -983041, 0, 131072, -1048576, 0, 131072, -1048575, 0, 131072, -1048574, 0, 196608, -1048573, 0, 65536, -1048572, 0, 0, -1048571, 0, 131072, -1048570, 0, 131072, -1048569, 0, 65536, -1048568, 0, 131072, -1048567, 0, 131072, -1048566, 0, 131072, -1048565, 0, 131072, -1048564, 0, 131072, -1048563, 0, 196608, -1048562, 0, 65536, -1048561, 0, 0, -1048560, 0, 0, -1048559, 0, 65536, -1048558, 0, 196608, -1048557, 0, 196608, -1048556, 0, 0, -1048555, 0, 196608, -1048554, 0, 65536, -1048553, 0, 196608, -1048552, 0, 131072, -1048551, 0, 131072, -1048550, 0, 196608, -1048549, 0, 196608, -1048548, 0, 196608, -1048547, 0, 65536, -1048546, 0, 65536, -1048545, 0, 131072, -1048544, 0, 0, -1048543, 0, 65536, -917510, 0, 65536, -917509, 0, 0, -917508, 0, 0, -917507, 0, 196608, -917506, 0, 65536, -917505, 0, 131072, -983040, 0, 65536, -983039, 0, 65536, -983038, 0, 65536, -983037, 0, 65536, -983036, 0, 196608, -983035, 0, 131072, -983034, 0, 196608, -983033, 0, 0, -983032, 0, 131072, -983031, 0, 65536, -983030, 0, 65536, -983029, 0, 65536, -983028, 0, 131072, -983027, 0, 131072, -983026, 0, 196608, -983025, 0, 65536, -983024, 0, 196608, -983023, 0, 0, -983022, 0, 196608, -983021, 0, 0, -983020, 0, 65536, -983019, 0, 131072, -983018, 0, 131072, -983017, 0, 196608, -983016, 0, 131072, -983015, 0, 131072, -983014, 0, 65536, -983013, 0, 196608, -983012, 0, 65536, -983011, 0, 131072, -983010, 0, 196608, -983009, 0, 131072, -983008, 0, 0, -983007, 0, 65536, -851974, 0, 131072, -851973, 0, 0, -851972, 0, 0, -851971, 0, 65536, -851970, 0, 0, -851969, 0, 131072, -917504, 0, 196608, -917503, 0, 0, -917502, 0, 196608, -917501, 0, 131072, -917500, 0, 131072, -917499, 0, 196608, -917498, 0, 0, -917497, 0, 0, -917496, 0, 196608, -917495, 0, 131072, -917494, 0, 196608, -917493, 0, 65536, -917492, 0, 0, -917491, 0, 196608, -917490, 0, 0, -917489, 0, 196608, -917488, 0, 0, -917487, 0, 65536, -917486, 0, 196608, -917485, 0, 65536, -917484, 0, 131072, -917483, 0, 131072, -917482, 0, 196608, -917481, 0, 196608, -917480, 0, 196608, -917479, 0, 196608, -917478, 0, 0, -917477, 0, 65536, -917476, 0, 196608, -917475, 0, 65536, -917474, 0, 131072, -917473, 0, 65536, -917472, 0, 131072, -917471, 0, 131072, -786453, 0, 0, -786452, 0, 0, -786451, 0, 0, -786450, 0, 0, -786449, 0, 0, -786448, 0, 0, -786447, 0, 0, -786446, 0, 0, -786445, 0, 0, -786444, 0, 0, -786443, 0, 0, -786442, 0, 0, -786441, 0, 0, -786440, 0, 0, -786439, 0, 0, -786438, 0, 0, -786437, 0, 0, -786436, 0, 0, -786435, 0, 0, -786434, 0, 0, -786433, 0, 0, -851968, 0, 0, -851967, 0, 0, -851966, 0, 0, -851965, 0, 0, -851964, 0, 0, -851963, 0, 0, -851962, 0, 0, -851961, 0, 0, -851960, 0, 0, -851959, 0, 0, -851958, 0, 0, -851957, 0, 0, -851956, 0, 0, -851955, 0, 0, -851954, 0, 0, -851953, 0, 0, -851952, 0, 0, -851951, 0, 0, -851950, 0, 0, -851949, 0, 0, -851948, 0, 0, -851947, 0, 0, -851946, 0, 0, -851945, 0, 0, -851944, 0, 0, -851943, 0, 0, -851942, 0, 0, -851941, 0, 0, -851940, 0, 0, -851939, 0, 0, -851938, 0, 0, -851937, 0, 0, -851936, 0, 0, -851935, 0, 0, -851934, 0, 0, -851933, 0, 0, -851932, 0, 0, -851931, 0, 0, -851930, 0, 0, -851929, 0, 0, -851928, 0, 0, -851927, 0, 0, -851926, 0, 0, -851925, 0, 0, -851924, 0, 0, -851923, 0, 0, -851922, 0, 0, -720917, 0, 0, -720916, 0, 0, -720915, 0, 0, -720914, 0, 0, -720913, 0, 0, -720912, 0, 0, -720911, 0, 0, -720910, 0, 0, -720909, 0, 0, -720908, 0, 0, -720907, 0, 0, -720906, 0, 0, -720905, 0, 0, -720904, 0, 0, -720903, 0, 0, -720902, 0, 0, -720901, 0, 0, -720900, 0, 0, -720899, 0, 0, -720898, 0, 0, -720897, 0, 0, -786432, 0, 0, -786431, 0, 0, -786430, 0, 0, -786429, 0, 0, -786428, 0, 0, -786427, 0, 0, -786426, 0, 0, -786425, 0, 0, -786424, 0, 0, -786423, 0, 0, -786422, 0, 0, -786421, 0, 0, -786420, 0, 0, -786419, 0, 0, -786418, 0, 0, -786417, 0, 0, -786416, 0, 0, -786415, 0, 0, -786414, 0, 0, -786413, 0, 0, -786412, 0, 0, -786411, 0, 0, -786410, 0, 0, -786409, 0, 0, -786408, 0, 0, -786407, 0, 0, -786406, 0, 0, -786405, 0, 0, -786404, 0, 0, -786403, 0, 0, -786402, 0, 0, -786401, 0, 0, -786400, 0, 0, -786399, 0, 0, -786398, 0, 0, -786397, 0, 0, -786396, 0, 0, -786395, 0, 0, -786394, 0, 0, -786393, 0, 0, -786392, 0, 0, -786391, 0, 0, -786390, 0, 0, -786389, 0, 0, -786388, 0, 0, -786387, 0, 0, -786386, 0, 0, -655381, 0, 0, -655380, 0, 0, -655379, 0, 0, -655378, 0, 0, -655377, 0, 0, -655376, 0, 0, -655375, 0, 0, -655374, 0, 0, -655373, 0, 0, -655372, 0, 0, -655371, 0, 0, -655370, 0, 0, -655369, 0, 0, -655368, 0, 0, -655367, 0, 0, -655366, 0, 0, -655365, 0, 0, -655364, 0, 0, -655363, 0, 0, -655362, 0, 0, -655361, 0, 0, -720896, 0, 0, -720895, 0, 0, -720894, 0, 0, -720893, 0, 0, -720892, 0, 0, -720891, 0, 0, -720890, 0, 0, -720889, 0, 0, -720888, 0, 0, -720887, 0, 0, -720886, 0, 0, -720885, 0, 0, -720884, 0, 0, -720883, 0, 0, -720882, 0, 0, -720881, 0, 0, -720880, 0, 0, -720879, 0, 0, -720878, 0, 0, -720877, 0, 0, -720876, 0, 0, -720875, 0, 0, -720874, 0, 0, -720873, 0, 0, -720872, 0, 0, -720871, 0, 0, -720870, 0, 0, -720869, 0, 0, -720868, 0, 0, -720867, 0, 0, -720866, 0, 0, -720865, 0, 0, -720864, 0, 0, -720863, 0, 0, -720862, 0, 0, -720861, 0, 0, -720860, 0, 0, -720859, 0, 0, -720858, 0, 0, -720857, 0, 0, -720856, 0, 0, -720855, 0, 0, -720854, 0, 0, -720853, 0, 0, -720852, 0, 0, -720851, 0, 0, -720850, 0, 0, -589845, 0, 0, -589844, 0, 0, -589843, 0, 0, -589842, 0, 0, -589841, 0, 0, -589840, 0, 0, -589839, 0, 0, -589838, 0, 0, -589837, 0, 0, -589836, 0, 0, -589835, 0, 0, -589834, 0, 0, -589833, 0, 0, -589832, 0, 0, -589831, 0, 0, -589830, 0, 0, -589829, 0, 0, -589828, 0, 0, -589827, 0, 0, -589826, 0, 0, -589825, 0, 0, -655360, 0, 0, -655359, 0, 0, -655358, 0, 0, -655357, 0, 0, -655356, 0, 0, -655355, 0, 0, -655354, 0, 0, -655353, 0, 0, -655352, 0, 0, -655351, 0, 0, -655350, 0, 0, -655349, 0, 0, -655348, 0, 0, -655347, 0, 0, -655346, 0, 0, -655345, 0, 0, -655344, 0, 0, -655343, 0, 0, -655342, 0, 0, -655341, 0, 0, -655340, 0, 0, -655339, 0, 0, -655338, 0, 0, -655337, 0, 0, -655336, 0, 0, -655335, 0, 0, -655334, 0, 0, -655333, 0, 0, -655332, 0, 0, -655331, 0, 0, -655330, 0, 0, -655329, 0, 0, -655328, 0, 0, -655327, 0, 0, -655326, 0, 0, -655325, 0, 0, -655324, 0, 0, -655323, 0, 0, -655322, 0, 0, -655321, 0, 0, -655320, 0, 0, -655319, 0, 0, -655318, 0, 0, -655317, 0, 0, -655316, 0, 0, -655315, 0, 0, -655314, 0, 0, -524309, 0, 0, -524308, 0, 0, -524307, 0, 0, -524306, 0, 0, -524305, 0, 0, -524304, 0, 0, -524303, 0, 0, -524302, 0, 0, -524301, 0, 0, -524300, 0, 0, -524299, 0, 0, -524298, 0, 0, -524297, 0, 0, -524296, 0, 0, -524295, 0, 0, -524294, 0, 0, -524293, 0, 0, -524292, 0, 0, -524291, 0, 0, -524290, 0, 0, -524289, 0, 0, -589824, 0, 0, -589823, 0, 0, -589822, 0, 0, -589821, 0, 0, -589820, 0, 0, -589819, 0, 0, -589818, 0, 0, -589817, 0, 0, -589816, 0, 0, -589815, 0, 0, -589814, 0, 0, -589813, 0, 0, -589812, 0, 0, -589811, 0, 0, -589810, 0, 0, -589809, 0, 0, -589808, 0, 0, -589807, 0, 0, -589806, 0, 0, -589805, 0, 0, -589804, 0, 0, -589803, 0, 0, -589802, 0, 0, -589801, 0, 0, -589800, 0, 0, -589799, 0, 0, -589798, 0, 0, -589797, 0, 0, -589796, 0, 0, -589795, 0, 0, -589794, 0, 0, -589793, 0, 0, -589792, 0, 0, -589791, 0, 0, -589790, 0, 0, -589789, 0, 0, -589788, 0, 0, -589787, 0, 0, -589786, 0, 0, -589785, 0, 0, -589784, 0, 0, -589783, 0, 0, -589782, 0, 0, -589781, 0, 0, -589780, 0, 0, -589779, 0, 0, -589778, 0, 0, -458773, 0, 0, -458772, 0, 0, -458771, 0, 0, -458770, 0, 0, -458769, 0, 0, -458768, 0, 0, -458767, 0, 0, -458766, 0, 0, -458765, 0, 0, -458764, 0, 0, -458763, 0, 0, -458762, 0, 0, -458761, 0, 0, -458760, 0, 0, -458759, 0, 0, -458758, 0, 0, -458757, 0, 0, -458756, 0, 0, -458755, 0, 0, -458754, 0, 0, -458753, 0, 0, -524288, 0, 0, -524287, 0, 0, -524286, 0, 0, -524285, 0, 0, -524284, 0, 0, -524283, 0, 0, -524282, 0, 0, -524281, 0, 0, -524280, 0, 0, -524279, 0, 0, -524278, 0, 0, -524277, 0, 0, -524276, 0, 0, -524275, 0, 0, -524274, 0, 0, -524273, 0, 0, -524272, 0, 0, -524271, 0, 0, -524270, 0, 0, -524269, 0, 0, -524268, 0, 0, -524267, 0, 0, -524266, 0, 0, -524265, 0, 0, -524264, 0, 0, -524263, 0, 0, -524262, 0, 0, -524261, 0, 0, -524260, 0, 0, -524259, 0, 0, -524258, 0, 0, -524257, 0, 0, -524256, 0, 0, -524255, 0, 0, -524254, 0, 0, -524253, 0, 0, -524252, 0, 0, -524251, 0, 0, -524250, 0, 0, -524249, 0, 0, -524248, 0, 0, -524247, 0, 0, -524246, 0, 0, -524245, 0, 0, -524244, 0, 0, -524243, 0, 0, -524242, 0, 0, -393237, 0, 0, -393236, 0, 0, -393235, 0, 0, -393234, 0, 0, -393233, 0, 0, -393232, 0, 0, -393231, 0, 0, -393230, 0, 0, -393229, 0, 0, -393228, 0, 0, -393227, 0, 0, -393226, 0, 0, -393225, 0, 0, -393224, 0, 0, -393223, 0, 0, -393222, 0, 0, -393221, 0, 0, -393220, 0, 0, -393219, 0, 0, -393218, 0, 0, -393217, 0, 0, -458752, 0, 0, -458751, 0, 0, -458750, 0, 0, -458749, 0, 0, -458748, 0, 0, -458747, 0, 0, -458746, 0, 0, -458745, 0, 0, -458744, 0, 0, -458743, 0, 0, -458742, 0, 0, -458741, 0, 0, -458740, 0, 0, -458739, 0, 0, -458738, 3, 0, -458737, 3, 1, -458736, 3, 1, -458735, 3, 2, -458734, 0, 0, -458733, 0, 0, -458732, 0, 0, -458731, 0, 0, -458730, 0, 0, -458729, 0, 0, -458728, 0, 0, -458727, 0, 0, -458726, 0, 0, -458725, 0, 0, -458724, 0, 0, -458723, 0, 0, -458722, 0, 0, -458721, 0, 0, -458720, 0, 0, -458719, 0, 0, -458718, 0, 0, -458717, 0, 0, -458716, 0, 0, -458715, 0, 0, -458714, 0, 0, -458713, 0, 0, -458712, 0, 0, -458711, 0, 0, -458710, 0, 0, -458709, 0, 0, -458708, 0, 0, -458707, 0, 0, -458706, 0, 0, -327701, 0, 0, -327700, 0, 0, -327699, 0, 0, -327698, 0, 0, -327697, 0, 0, -327696, 0, 0, -327695, 0, 0, -327694, 0, 0, -327693, 0, 0, -327692, 0, 0, -327691, 0, 0, -327690, 3, 0, -327689, 3, 1, -327688, 3, 1, -327687, 3, 1, -327686, 3, 1, -327685, 3, 1, -327684, 3, 1, -327683, 3, 1, -327682, 3, 1, -327681, 3, 1, -393216, 3, 1, -393215, 3, 1, -393214, 3, 1, -393213, 3, 1, -393212, 3, 1, -393211, 3, 1, -393210, 3, 1, -393209, 3, 1, -393208, 3, 1, -393207, 3, 1, -393206, 3, 1, -393205, 3, 1, -393204, 3, 1, -393203, 3, 1, -393202, 3, 262145, -393201, 3, 65537, -393200, 3, 65537, -393199, 3, 262144, -393198, 3, 1, -393197, 3, 1, -393196, 3, 1, -393195, 3, 1, -393194, 3, 1, -393193, 3, 1, -393192, 3, 1, -393191, 3, 1, -393190, 3, 1, -393189, 3, 1, -393188, 3, 1, -393187, 3, 1, -393186, 3, 1, -393185, 3, 1, -393184, 3, 1, -393183, 3, 1, -393182, 3, 1, -393181, 3, 2, -393180, 0, 0, -393179, 0, 0, -393178, 0, 0, -393177, 0, 0, -393176, 0, 0, -393175, 0, 0, -393174, 0, 0, -393173, 0, 0, -393172, 0, 0, -393171, 0, 0, -393170, 0, 0, -262165, 0, 0, -262164, 0, 0, -262163, 0, 0, -262162, 0, 0, -262161, 0, 0, -262160, 0, 0, -262159, 0, 0, -262158, 0, 0, -262157, 0, 0, -262156, 0, 0, -262155, 0, 0, -262154, 3, 65536, -262153, 3, 196608, -262152, 3, 131073, -262151, 3, 131073, -262150, 3, 131073, -262149, 3, 131073, -262148, 3, 131073, -262147, 3, 131073, -262146, 3, 131073, -262145, 3, 131073, -327680, 3, 131073, -327679, 3, 131073, -327678, 3, 131073, -327677, 3, 131073, -327676, 3, 131073, -327675, 3, 131073, -327674, 3, 131073, -327673, 3, 131073, -327672, 3, 131073, -327671, 3, 131073, -327670, 3, 131073, -327669, 3, 131073, -327668, 3, 131073, -327667, 3, 131073, -327666, 3, 196609, -327665, 3, 65537, -327664, 3, 65537, -327663, 3, 196608, -327662, 3, 131073, -327661, 3, 131073, -327660, 3, 131073, -327659, 3, 131073, -327658, 3, 131073, -327657, 3, 131073, -327656, 3, 131073, -327655, 3, 131073, -327654, 3, 131073, -327653, 3, 131073, -327652, 3, 131073, -327651, 3, 131073, -327650, 3, 131073, -327649, 3, 131073, -327648, 3, 131073, -327647, 3, 131073, -327646, 3, 196609, -327645, 3, 65538, -327644, 0, 0, -327643, 0, 0, -327642, 0, 0, -327641, 0, 0, -327640, 0, 0, -327639, 0, 0, -327638, 0, 0, -327637, 0, 0, -327636, 0, 0, -327635, 0, 0, -327634, 0, 0, -196629, 0, 0, -196628, 0, 0, -196627, 0, 0, -196626, 0, 0, -196625, 0, 0, -196624, 0, 0, -196623, 0, 0, -196622, 0, 0, -196621, 0, 0, -196620, 0, 0, -196619, 0, 0, -196618, 3, 65536, -196617, 3, 65538, -196616, 0, 196608, -196615, 0, 131072, -196614, 0, 131072, -196613, 0, 131072, -196612, 0, 196608, -196611, 0, 131072, -196610, 0, 0, -196609, 0, 65536, -262144, 0, 131072, -262143, 0, 131072, -262142, 0, 0, -262141, 0, 65536, -262140, 0, 131072, -262139, 0, 0, -262138, 0, 131072, -262137, 0, 196608, -262136, 0, 196608, -262135, 0, 131072, -262134, 0, 196608, -262133, 0, 196608, -262132, 0, 131072, -262131, 0, 196608, -262130, 3, 65536, -262129, 3, 65537, -262128, 3, 65537, -262127, 3, 65538, -262126, 0, 196608, -262125, 0, 0, -262124, 0, 131072, -262123, 0, 0, -262122, 0, 0, -262121, 0, 131072, -262120, 0, 0, -262119, 0, 65536, -262118, 0, 65536, -262117, 0, 0, -262116, 0, 196608, -262115, 0, 0, -262114, 0, 131072, -262113, 0, 196608, -262112, 0, 196608, -262111, 0, 196608, -262110, 3, 65536, -262109, 3, 65538, -262108, 0, 0, -262107, 0, 0, -262106, 0, 0, -262105, 0, 0, -262104, 0, 0, -262103, 0, 0, -262102, 0, 0, -262101, 0, 0, -262100, 0, 0, -262099, 0, 0, -262098, 0, 0, -131093, 0, 0, -131092, 0, 0, -131091, 0, 0, -131090, 0, 0, -131089, 0, 0, -131088, 0, 0, -131087, 0, 0, -131086, 0, 0, -131085, 0, 0, -131084, 0, 0, -131083, 0, 0, -131082, 3, 65536, -131081, 3, 65538, -131080, 0, 65536, -131079, 0, 131072, -131078, 0, 0, -131077, 0, 65536, -131076, 0, 131072, -131075, 0, 196608, -131074, 0, 131072, -131073, 0, 131072, -196608, 0, 65536, -196607, 0, 131072, -196606, 0, 65536, -196605, 0, 65536, -196604, 0, 65536, -196603, 0, 131072, -196602, 0, 196608, -196601, 0, 196608, -196600, 0, 0, -196599, 0, 0, -196598, 0, 0, -196597, 0, 131072, -196596, 0, 65536, -196595, 0, 196608, -196594, 3, 65536, -196593, 3, 65537, -196592, 3, 65537, -196591, 3, 65538, -196590, 0, 0, -196589, 0, 0, -196588, 0, 196608, -196587, 0, 65536, -196586, 0, 65536, -196585, 0, 131072, -196584, 0, 131072, -196583, 0, 196608, -196582, 0, 65536, -196581, 0, 0, -196580, 0, 131072, -196579, 0, 196608, -196578, 0, 131072, -196577, 0, 196608, -196576, 0, 131072, -196575, 0, 65536, -196574, 3, 65536, -196573, 3, 65538, -196572, 0, 0, -196571, 0, 0, -196570, 0, 0, -196569, 0, 0, -196568, 0, 0, -196567, 0, 0, -196566, 0, 0, -196565, 0, 0, -196564, 0, 0, -196563, 0, 0, -196562, 0, 0, -65557, 0, 0, -65556, 0, 0, -65555, 0, 0, -65554, 0, 0, -65553, 0, 0, -65552, 0, 0, -65551, 0, 0, -65550, 0, 0, -65549, 0, 0, -65548, 0, 0, -65547, 0, 0, -65546, 3, 65536, -65545, 3, 65538, -65544, 0, 65536, -65543, 0, 131072, -65542, 0, 0, -65541, 0, 0, -65540, 0, 0, -65539, 0, 131072, -65538, 0, 65536, -65537, 0, 196608, -131072, 0, 196608, -131071, 0, 196608, -131070, 0, 131072, -131069, 0, 196608, -131068, 0, 0, -131067, 0, 196608, -131066, 0, 0, -131065, 0, 0, -131064, 0, 196608, -131063, 0, 131072, -131062, 0, 65536, -131061, 0, 196608, -131060, 0, 0, -131059, 0, 196608, -131058, 3, 65536, -131057, 3, 65537, -131056, 3, 65537, -131055, 3, 65538, -131054, 0, 196608, -131053, 0, 196608, -131052, 0, 65536, -131051, 0, 196608, -131050, 0, 0, -131049, 0, 0, -131048, 0, 196608, -131047, 0, 0, -131046, 0, 131072, -131045, 0, 0, -131044, 0, 0, -131043, 0, 196608, -131042, 0, 196608, -131041, 0, 196608, -131040, 0, 65536, -131039, 0, 196608, -131038, 3, 65536, -131037, 3, 65538, -131036, 0, 0, -131035, 0, 0, -131034, 0, 0, -131033, 0, 0, -131032, 0, 0, -131031, 0, 0, -131030, 0, 0, -131029, 0, 0, -131028, 0, 0, -131027, 0, 0, -131026, 0, 0, -21, 0, 0, -20, 0, 0, -19, 0, 0, -18, 0, 0, -17, 0, 0, -16, 0, 0, -15, 0, 0, -14, 0, 0, -13, 0, 0, -12, 0, 0, -11, 0, 0, -10, 3, 65536, -9, 3, 65538, -8, 0, 0, -7, 0, 196608, -6, 0, 65536, -5, 0, 65536, -4, 0, 131072, -3, 0, 131072, -2, 0, 131072, -1, 0, 0, -65536, 0, 131072, -65535, 0, 196608, -65534, 0, 0, -65533, 0, 196608, -65532, 0, 0, -65531, 0, 131072, -65530, 0, 196608, -65529, 0, 65536, -65528, 0, 196608, -65527, 0, 196608, -65526, 0, 0, -65525, 0, 196608, -65524, 0, 0, -65523, 0, 196608, -65522, 3, 65536, -65521, 3, 65537, -65520, 3, 65537, -65519, 3, 65538, -65518, 0, 196608, -65517, 0, 65536, -65516, 0, 131072, -65515, 0, 65536, -65514, 0, 65536, -65513, 0, 196608, -65512, 0, 0, -65511, 0, 0, -65510, 0, 196608, -65509, 0, 131072, -65508, 0, 0, -65507, 0, 0, -65506, 0, 65536, -65505, 0, 65536, -65504, 0, 65536, -65503, 0, 131072, -65502, 3, 65536, -65501, 3, 65538, -65500, 0, 0, -65499, 0, 0, -65498, 0, 0, -65497, 0, 0, -65496, 0, 0, -65495, 0, 0, -65494, 0, 0, -65493, 0, 0, -65492, 0, 0, -65491, 0, 0, -65490, 0, 0, 65515, 0, 0, 65516, 0, 0, 65517, 0, 0, 65518, 0, 0, 65519, 0, 0, 65520, 0, 0, 65521, 0, 0, 65522, 0, 0, 65523, 0, 0, 65524, 0, 0, 65525, 0, 0, 65526, 3, 65536, 65527, 3, 65538, 65528, 0, 131072, 65529, 0, 0, 65530, 0, 131072, 65531, 0, 131072, 65532, 0, 196608, 65533, 0, 196608, 65534, 0, 65536, 65535, 0, 0, 0, 0, 131072, 1, 0, 0, 2, 0, 196608, 3, 0, 65536, 4, 0, 0, 5, 0, 196608, 6, 0, 131072, 7, 0, 65536, 8, 0, 131072, 9, 0, 131072, 10, 0, 0, 11, 0, 0, 12, 0, 196608, 13, 0, 65536, 14, 3, 65536, 15, 3, 65537, 16, 3, 65537, 17, 3, 65538, 18, 0, 196608, 19, 0, 131072, 20, 0, 196608, 21, 0, 65536, 22, 0, 131072, 23, 0, 131072, 24, 0, 131072, 25, 0, 65536, 26, 0, 196608, 27, 0, 196608, 28, 0, 196608, 29, 0, 65536, 30, 0, 196608, 31, 0, 0, 32, 0, 131072, 33, 0, 65536, 34, 3, 65536, 35, 3, 65538, 36, 0, 0, 37, 0, 0, 38, 0, 0, 39, 0, 0, 40, 0, 0, 41, 0, 0, 42, 0, 0, 43, 0, 0, 44, 0, 0, 45, 0, 0, 46, 0, 0, 131051, 0, 0, 131052, 0, 0, 131053, 0, 0, 131054, 0, 0, 131055, 0, 0, 131056, 0, 0, 131057, 0, 0, 131058, 0, 0, 131059, 0, 0, 131060, 0, 0, 131061, 0, 0, 131062, 3, 65536, 131063, 3, 65538, 131064, 0, 131072, 131065, 0, 196608, 131066, 0, 65536, 131067, 0, 65536, 131068, 3, 0, 131069, 3, 1, 131070, 3, 2, 131071, 0, 131072, 65536, 0, 0, 65537, 0, 0, 65538, 0, 65536, 65539, 0, 196608, 65540, 0, 0, 65541, 0, 0, 65542, 0, 196608, 65543, 0, 131072, 65544, 0, 196608, 65545, 0, 196608, 65546, 0, 196608, 65547, 0, 0, 65548, 0, 65536, 65549, 0, 0, 65550, 3, 65536, 65551, 3, 65537, 65552, 3, 65537, 65553, 3, 65538, 65554, 0, 0, 65555, 0, 131072, 65556, 0, 0, 65557, 0, 131072, 65558, 0, 0, 65559, 0, 65536, 65560, 0, 0, 65561, 0, 196608, 65562, 0, 196608, 65563, 0, 0, 65564, 0, 65536, 65565, 0, 196608, 65566, 0, 0, 65567, 0, 65536, 65568, 0, 65536, 65569, 0, 65536, 65570, 3, 65536, 65571, 3, 65538, 65572, 0, 0, 65573, 0, 0, 65574, 0, 0, 65575, 0, 0, 65576, 0, 0, 65577, 0, 0, 65578, 0, 0, 65579, 0, 0, 65580, 0, 0, 65581, 0, 0, 65582, 0, 0, 196587, 0, 0, 196588, 0, 0, 196589, 0, 0, 196590, 0, 0, 196591, 0, 0, 196592, 0, 0, 196593, 0, 0, 196594, 0, 0, 196595, 0, 0, 196596, 0, 0, 196597, 0, 0, 196598, 3, 65536, 196599, 3, 262144, 196600, 3, 1, 196601, 3, 1, 196602, 3, 1, 196603, 3, 1, 196604, 3, 262145, 196605, 3, 65537, 196606, 3, 262144, 196607, 3, 1, 131072, 3, 1, 131073, 3, 1, 131074, 3, 1, 131075, 3, 1, 131076, 3, 1, 131077, 3, 1, 131078, 3, 1, 131079, 3, 1, 131080, 3, 1, 131081, 3, 1, 131082, 3, 1, 131083, 3, 1, 131084, 3, 1, 131085, 3, 1, 131086, 3, 262145, 131087, 3, 65537, 131088, 3, 65537, 131089, 3, 65538, 131090, 0, 0, 131091, 0, 131072, 131092, 0, 0, 131093, 0, 65536, 131094, 0, 65536, 131095, 0, 0, 131096, 0, 0, 131097, 0, 0, 131098, 0, 65536, 131099, 0, 131072, 131100, 0, 196608, 131101, 0, 0, 131102, 0, 0, 131103, 0, 131072, 131104, 0, 196608, 131105, 0, 0, 131106, 3, 65536, 131107, 3, 65538, 131108, 0, 0, 131109, 0, 0, 131110, 0, 0, 131111, 0, 0, 131112, 0, 0, 131113, 0, 0, 131114, 0, 0, 131115, 0, 0, 131116, 0, 0, 131117, 0, 0, 131118, 0, 0, 262123, 0, 0, 262124, 0, 0, 262125, 0, 0, 262126, 0, 0, 262127, 0, 0, 262128, 0, 0, 262129, 0, 0, 262130, 0, 0, 262131, 0, 0, 262132, 0, 0, 262133, 0, 0, 262134, 3, 65536, 262135, 3, 196608, 262136, 3, 131073, 262137, 3, 131073, 262138, 3, 131073, 262139, 3, 131073, 262140, 3, 131073, 262141, 3, 131073, 262142, 3, 131073, 262143, 3, 131073, 196608, 3, 131073, 196609, 3, 131073, 196610, 3, 131073, 196611, 3, 131073, 196612, 3, 131073, 196613, 3, 131073, 196614, 3, 131073, 196615, 3, 131073, 196616, 3, 131073, 196617, 3, 131073, 196618, 3, 131073, 196619, 3, 131073, 196620, 3, 131073, 196621, 3, 131073, 196622, 3, 131073, 196623, 3, 131073, 196624, 3, 131073, 196625, 3, 131074, 196626, 0, 65536, 196627, 0, 196608, 196628, 0, 0, 196629, 0, 131072, 196630, 0, 65536, 196631, 0, 0, 196632, 0, 131072, 196633, 0, 65536, 196634, 0, 131072, 196635, 0, 65536, 196636, 0, 65536, 196637, 0, 131072, 196638, 0, 131072, 196639, 0, 0, 196640, 0, 65536, 196641, 0, 65536, 196642, 3, 65536, 196643, 3, 65538, 196644, 0, 0, 196645, 0, 0, 196646, 0, 0, 196647, 0, 0, 196648, 0, 0, 196649, 0, 0, 196650, 0, 0, 196651, 0, 0, 196652, 0, 0, 196653, 0, 0, 196654, 0, 0, 327659, 0, 0, 327660, 0, 0, 327661, 0, 0, 327662, 0, 0, 327663, 0, 0, 327664, 0, 0, 327665, 0, 0, 327666, 0, 0, 327667, 0, 0, 327668, 0, 0, 327669, 0, 0, 327670, 3, 65536, 327671, 3, 65538, 327672, 0, 0, 327673, 0, 131072, 327674, 0, 196608, 327675, 0, 65536, 327676, 0, 65536, 327677, 0, 131072, 327678, 0, 131072, 327679, 0, 65536, 262144, 0, 0, 262145, 0, 131072, 262146, 0, 0, 262147, 0, 196608, 262148, 0, 0, 262149, 0, 0, 262150, 0, 131072, 262151, 0, 196608, 262152, 0, 65536, 262153, 0, 131072, 262154, 0, 65536, 262155, 0, 196608, 262156, 0, 196608, 262157, 0, 0, 262158, 0, 65536, 262159, 0, 131072, 262160, 0, 131072, 262161, 0, 65536, 262162, 0, 131072, 262163, 0, 196608, 262164, 0, 65536, 262165, 0, 65536, 262166, 0, 196608, 262167, 0, 196608, 262168, 0, 131072, 262169, 0, 0, 262170, 0, 0, 262171, 0, 0, 262172, 0, 65536, 262173, 0, 131072, 262174, 0, 131072, 262175, 0, 131072, 262176, 0, 131072, 262177, 0, 196608, 262178, 3, 65536, 262179, 3, 65538, 262180, 0, 0, 262181, 0, 0, 262182, 0, 0, 262183, 0, 0, 262184, 0, 0, 262185, 0, 0, 262186, 0, 0, 262187, 0, 0, 262188, 0, 0, 262189, 0, 0, 262190, 0, 0, 393195, 0, 0, 393196, 0, 0, 393197, 0, 0, 393198, 0, 0, 393199, 0, 0, 393200, 0, 0, 393201, 0, 0, 393202, 0, 0, 393203, 0, 0, 393204, 0, 0, 393205, 0, 0, 393206, 3, 65536, 393207, 3, 65538, 393208, 0, 0, 393209, 0, 196608, 393210, 0, 0, 393211, 0, 0, 393212, 0, 0, 393213, 0, 196608, 393214, 0, 65536, 393215, 0, 131072, 327680, 0, 196608, 327681, 0, 65536, 327682, 0, 131072, 327683, 0, 131072, 327684, 0, 196608, 327685, 0, 196608, 327686, 0, 0, 327687, 0, 131072, 327688, 0, 131072, 327689, 0, 65536, 327690, 0, 196608, 327691, 0, 131072, 327692, 0, 0, 327693, 0, 0, 327694, 0, 65536, 327695, 0, 131072, 327696, 0, 196608, 327697, 0, 131072, 327698, 0, 0, 327699, 0, 131072, 327700, 0, 131072, 327701, 0, 131072, 327702, 0, 131072, 327703, 0, 196608, 327704, 0, 196608, 327705, 0, 196608, 327706, 0, 131072, 327707, 0, 0, 327708, 0, 0, 327709, 0, 0, 327710, 0, 196608, 327711, 0, 196608, 327712, 0, 0, 327713, 0, 65536, 327714, 3, 65536, 327715, 3, 65538, 327716, 0, 0, 327717, 0, 0, 327718, 0, 0, 327719, 0, 0, 327720, 0, 0, 327721, 0, 0, 327722, 0, 0, 327723, 0, 0, 327724, 0, 0, 327725, 0, 0, 327726, 0, 0, 458731, 0, 0, 458732, 0, 0, 458733, 0, 0, 458734, 0, 0, 458735, 0, 0, 458736, 0, 0, 458737, 0, 0, 458738, 0, 0, 458739, 0, 0, 458740, 0, 0, 458741, 0, 0, 458742, 3, 65536, 458743, 3, 65538, 458744, 0, 131072, 458745, 0, 65536, 458746, 0, 131072, 458747, 0, 196608, 458748, 0, 65536, 458749, 0, 131072, 458750, 0, 131072, 458751, 0, 0, 393216, 0, 0, 393217, 0, 131072, 393218, 0, 65536, 393219, 0, 65536, 393220, 0, 0, 393221, 0, 65536, 393222, 0, 65536, 393223, 0, 65536, 393224, 0, 131072, 393225, 0, 65536, 393226, 0, 131072, 393227, 0, 65536, 393228, 0, 65536, 393229, 0, 131072, 393230, 0, 131072, 393231, 0, 65536, 393232, 0, 65536, 393233, 0, 131072, 393234, 0, 0, 393235, 0, 0, 393236, 0, 196608, 393237, 0, 0, 393238, 0, 131072, 393239, 0, 65536, 393240, 0, 196608, 393241, 0, 0, 393242, 0, 196608, 393243, 0, 0, 393244, 0, 65536, 393245, 0, 196608, 393246, 0, 0, 393247, 0, 196608, 393248, 0, 65536, 393249, 0, 0, 393250, 3, 65536, 393251, 3, 65538, 393252, 0, 0, 393253, 0, 0, 393254, 0, 0, 393255, 0, 0, 393256, 0, 0, 393257, 0, 0, 393258, 0, 0, 393259, 0, 0, 393260, 0, 0, 393261, 0, 0, 393262, 0, 0, 524267, 0, 0, 524268, 0, 0, 524269, 0, 0, 524270, 0, 0, 524271, 0, 0, 524272, 0, 0, 524273, 0, 0, 524274, 0, 0, 524275, 0, 0, 524276, 0, 0, 524277, 0, 0, 524278, 3, 65536, 524279, 3, 65538, 524280, 0, 131072, 524281, 0, 0, 524282, 0, 0, 524283, 0, 131072, 524284, 0, 0, 524285, 0, 65536, 524286, 0, 131072, 524287, 0, 196608, 458752, 0, 196608, 458753, 0, 131072, 458754, 0, 0, 458755, 0, 131072, 458756, 0, 0, 458757, 0, 0, 458758, 0, 65536, 458759, 0, 0, 458760, 0, 196608, 458761, 0, 65536, 458762, 0, 196608, 458763, 0, 0, 458764, 0, 196608, 458765, 0, 196608, 458766, 0, 0, 458767, 0, 196608, 458768, 0, 131072, 458769, 0, 131072, 458770, 0, 131072, 458771, 0, 196608, 458772, 0, 131072, 458773, 0, 65536, 458774, 0, 131072, 458775, 0, 65536, 458776, 0, 0, 458777, 0, 0, 458778, 0, 0, 458779, 0, 131072, 458780, 0, 131072, 458781, 0, 196608, 458782, 0, 0, 458783, 0, 65536, 458784, 0, 65536, 458785, 0, 131072, 458786, 3, 65536, 458787, 3, 65538, 458788, 0, 0, 458789, 0, 0, 458790, 0, 0, 458791, 0, 0, 458792, 0, 0, 458793, 0, 0, 458794, 0, 0, 458795, 0, 0, 458796, 0, 0, 458797, 0, 0, 458798, 0, 0, 589803, 0, 0, 589804, 0, 0, 589805, 0, 0, 589806, 0, 0, 589807, 0, 0, 589808, 0, 0, 589809, 0, 0, 589810, 0, 0, 589811, 0, 0, 589812, 0, 0, 589813, 0, 0, 589814, 3, 65536, 589815, 3, 65538, 589816, 0, 0, 589817, 0, 65536, 589818, 0, 196608, 589819, 0, 65536, 589820, 0, 196608, 589821, 0, 131072, 589822, 0, 65536, 589823, 0, 0, 524288, 0, 0, 524289, 0, 196608, 524290, 0, 65536, 524291, 0, 0, 524292, 0, 65536, 524293, 0, 65536, 524294, 0, 65536, 524295, 0, 0, 524296, 0, 0, 524297, 0, 131072, 524298, 0, 65536, 524299, 0, 131072, 524300, 0, 0, 524301, 0, 131072, 524302, 0, 131072, 524303, 0, 65536, 524304, 0, 131072, 524305, 0, 131072, 524306, 0, 0, 524307, 0, 65536, 524308, 0, 0, 524309, 0, 0, 524310, 0, 196608, 524311, 0, 131072, 524312, 0, 65536, 524313, 0, 196608, 524314, 0, 65536, 524315, 0, 196608, 524316, 0, 131072, 524317, 0, 65536, 524318, 0, 131072, 524319, 0, 131072, 524320, 0, 0, 524321, 0, 0, 524322, 3, 65536, 524323, 3, 65538, 524324, 0, 0, 524325, 0, 0, 524326, 0, 0, 524327, 0, 0, 524328, 0, 0, 524329, 0, 0, 524330, 0, 0, 524331, 0, 0, 524332, 0, 0, 524333, 0, 0, 524334, 0, 0, 655339, 0, 0, 655340, 0, 0, 655341, 0, 0, 655342, 0, 0, 655343, 0, 0, 655344, 0, 0, 655345, 0, 0, 655346, 0, 0, 655347, 0, 0, 655348, 0, 0, 655349, 0, 0, 655350, 3, 65536, 655351, 3, 65538, 655352, 0, 65536, 655353, 0, 196608, 655354, 0, 0, 655355, 0, 65536, 655356, 0, 0, 655357, 0, 196608, 655358, 0, 131072, 655359, 0, 0, 589824, 0, 0, 589825, 0, 196608, 589826, 0, 196608, 589827, 0, 196608, 589828, 0, 65536, 589829, 0, 131072, 589830, 0, 131072, 589831, 0, 131072, 589832, 0, 196608, 589833, 0, 65536, 589834, 0, 196608, 589835, 0, 0, 589836, 0, 196608, 589837, 0, 0, 589838, 0, 65536, 589839, 0, 0, 589840, 0, 196608, 589841, 0, 65536, 589842, 0, 196608, 589843, 0, 131072, 589844, 0, 196608, 589845, 0, 0, 589846, 0, 196608, 589847, 0, 0, 589848, 0, 131072, 589849, 0, 65536, 589850, 0, 65536, 589851, 0, 131072, 589852, 0, 65536, 589853, 0, 0, 589854, 0, 131072, 589855, 0, 196608, 589856, 0, 196608, 589857, 0, 196608, 589858, 3, 65536, 589859, 3, 65538, 589860, 0, 0, 589861, 0, 0, 589862, 0, 0, 589863, 0, 0, 589864, 0, 0, 589865, 0, 0, 589866, 0, 0, 589867, 0, 0, 589868, 0, 0, 589869, 0, 0, 589870, 0, 0, 720875, 0, 0, 720876, 0, 0, 720877, 0, 0, 720878, 0, 0, 720879, 0, 0, 720880, 0, 0, 720881, 0, 0, 720882, 0, 0, 720883, 0, 0, 720884, 0, 0, 720885, 0, 0, 720886, 3, 65536, 720887, 3, 65538, 720888, 0, 65536, 720889, 0, 131072, 720890, 0, 65536, 720891, 0, 65536, 720892, 0, 131072, 720893, 0, 0, 720894, 0, 196608, 720895, 0, 196608, 655360, 0, 196608, 655361, 0, 131072, 655362, 0, 65536, 655363, 0, 196608, 655364, 0, 196608, 655365, 0, 196608, 655366, 0, 196608, 655367, 0, 196608, 655368, 0, 65536, 655369, 0, 196608, 655370, 0, 65536, 655371, 0, 196608, 655372, 0, 131072, 655373, 0, 131072, 655374, 0, 65536, 655375, 0, 0, 655376, 0, 131072, 655377, 0, 0, 655378, 0, 196608, 655379, 0, 65536, 655380, 0, 0, 655381, 0, 131072, 655382, 0, 65536, 655383, 0, 0, 655384, 0, 196608, 655385, 0, 65536, 655386, 0, 196608, 655387, 0, 0, 655388, 0, 0, 655389, 0, 196608, 655390, 0, 131072, 655391, 0, 0, 655392, 0, 131072, 655393, 0, 196608, 655394, 3, 65536, 655395, 3, 65538, 655396, 0, 0, 655397, 0, 0, 655398, 0, 0, 655399, 0, 0, 655400, 0, 0, 655401, 0, 0, 655402, 0, 0, 655403, 0, 0, 655404, 0, 0, 655405, 0, 0, 655406, 0, 0, 786411, 0, 0, 786412, 0, 0, 786413, 0, 0, 786414, 0, 0, 786415, 0, 0, 786416, 0, 0, 786417, 0, 0, 786418, 0, 0, 786419, 0, 0, 786420, 0, 0, 786421, 0, 0, 786422, 3, 65536, 786423, 3, 65538, 786424, 0, 65536, 786425, 0, 196608, 786426, 0, 0, 786427, 0, 65536, 786428, 0, 196608, 786429, 0, 65536, 786430, 0, 65536, 786431, 0, 196608, 720896, 0, 65536, 720897, 0, 0, 720898, 0, 131072, 720899, 0, 131072, 720900, 0, 196608, 720901, 0, 196608, 720902, 0, 131072, 720903, 0, 65536, 720904, 0, 0, 720905, 0, 131072, 720906, 0, 196608, 720907, 0, 0, 720908, 0, 196608, 720909, 0, 196608, 720910, 0, 65536, 720911, 0, 196608, 720912, 0, 0, 720913, 0, 65536, 720914, 0, 131072, 720915, 0, 196608, 720916, 0, 196608, 720917, 0, 196608, 720918, 0, 131072, 720919, 0, 65536, 720920, 0, 0, 720921, 0, 196608, 720922, 0, 0, 720923, 0, 65536, 720924, 0, 65536, 720925, 0, 196608, 720926, 0, 65536, 720927, 0, 65536, 720928, 0, 131072, 720929, 0, 65536, 720930, 3, 65536, 720931, 3, 65538, 720932, 0, 0, 720933, 0, 0, 720934, 0, 0, 720935, 0, 0, 720936, 0, 0, 720937, 0, 0, 720938, 0, 0, 720939, 0, 0, 720940, 0, 0, 720941, 0, 0, 720942, 0, 0, 851947, 0, 0, 851948, 0, 0, 851949, 0, 0, 851950, 0, 0, 851951, 0, 0, 851952, 0, 0, 851953, 0, 0, 851954, 0, 0, 851955, 0, 0, 851956, 0, 0, 851957, 0, 0, 851958, 3, 65536, 851959, 3, 65538, 851960, 0, 0, 851961, 0, 0, 851962, 0, 196608, 851963, 0, 65536, 851964, 0, 65536, 851965, 0, 196608, 851966, 0, 196608, 851967, 0, 0, 786432, 0, 65536, 786433, 0, 196608, 786434, 0, 65536, 786435, 0, 65536, 786436, 0, 0, 786437, 0, 65536, 786438, 0, 196608, 786439, 0, 196608, 786440, 0, 0, 786441, 0, 65536, 786442, 0, 131072, 786443, 0, 0, 786444, 0, 65536, 786445, 0, 65536, 786446, 0, 0, 786447, 0, 0, 786448, 0, 0, 786449, 0, 65536, 786450, 0, 131072, 786451, 0, 131072, 786452, 0, 131072, 786453, 0, 196608, 786454, 0, 0, 786455, 0, 0, 786456, 0, 65536, 786457, 0, 65536, 786458, 0, 0, 786459, 0, 131072, 786460, 0, 0, 786461, 0, 0, 786462, 0, 131072, 786463, 0, 196608, 786464, 0, 131072, 786465, 0, 0, 786466, 3, 65536, 786467, 3, 65538, 786468, 0, 0, 786469, 0, 0, 786470, 0, 0, 786471, 0, 0, 786472, 0, 0, 786473, 0, 0, 786474, 0, 0, 786475, 0, 0, 786476, 0, 0, 786477, 0, 0, 786478, 0, 0, 917483, 0, 0, 917484, 0, 0, 917485, 0, 0, 917486, 0, 0, 917487, 0, 0, 917488, 0, 0, 917489, 0, 0, 917490, 0, 0, 917491, 0, 0, 917492, 0, 0, 917493, 0, 0, 917494, 3, 65536, 917495, 3, 65538, 917496, 0, 65536, 917497, 0, 65536, 917498, 0, 196608, 917499, 0, 196608, 917500, 0, 0, 917501, 0, 65536, 917502, 0, 196608, 917503, 0, 196608, 851968, 0, 0, 851969, 0, 131072, 851970, 0, 65536, 851971, 0, 131072, 851972, 0, 196608, 851973, 0, 196608, 851974, 0, 196608, 851975, 0, 196608, 851976, 0, 131072, 851977, 0, 131072, 851978, 0, 196608, 851979, 0, 196608, 851980, 0, 131072, 851981, 0, 0, 851982, 0, 196608, 851983, 0, 196608, 851984, 0, 65536, 851985, 0, 131072, 851986, 0, 0, 851987, 0, 0, 851988, 0, 0, 851989, 0, 131072, 851990, 0, 131072, 851991, 0, 131072, 851992, 0, 0, 851993, 0, 196608, 851994, 0, 65536, 851995, 0, 65536, 851996, 0, 0, 851997, 0, 131072, 851998, 0, 0, 851999, 0, 65536, 852000, 0, 0, 852001, 0, 196608, 852002, 3, 65536, 852003, 3, 65538, 852004, 0, 0, 852005, 0, 0, 852006, 0, 0, 852007, 0, 0, 852008, 0, 0, 852009, 0, 0, 852010, 0, 0, 852011, 0, 0, 852012, 0, 0, 852013, 0, 0, 852014, 0, 0, 983019, 0, 0, 983020, 0, 0, 983021, 0, 0, 983022, 0, 0, 983023, 0, 0, 983024, 0, 0, 983025, 0, 0, 983026, 0, 0, 983027, 0, 0, 983028, 0, 0, 983029, 0, 0, 983030, 3, 65536, 983031, 3, 65538, 983032, 0, 65536, 983033, 0, 196608, 983034, 0, 131072, 983035, 0, 65536, 983036, 0, 65536, 983037, 0, 0, 983038, 0, 65536, 983039, 0, 0, 917504, 0, 0, 917505, 0, 196608, 917506, 0, 131072, 917507, 0, 65536, 917508, 0, 0, 917509, 0, 65536, 917510, 0, 131072, 917511, 0, 65536, 917512, 0, 131072, 917513, 0, 0, 917514, 0, 0, 917515, 0, 0, 917516, 0, 65536, 917517, 0, 196608, 917518, 0, 65536, 917519, 0, 0, 917520, 0, 196608, 917521, 0, 196608, 917522, 0, 0, 917523, 0, 131072, 917524, 0, 131072, 917525, 0, 196608, 917526, 0, 196608, 917527, 0, 65536, 917528, 0, 65536, 917529, 0, 65536, 917530, 0, 131072, 917531, 0, 196608, 917532, 0, 196608, 917533, 0, 65536, 917534, 0, 131072, 917535, 0, 196608, 917536, 0, 0, 917537, 0, 65536, 917538, 3, 65536, 917539, 3, 65538, 917540, 0, 0, 917541, 0, 0, 917542, 0, 0, 917543, 0, 0, 917544, 0, 0, 917545, 0, 0, 917546, 0, 0, 917547, 0, 0, 917548, 0, 0, 917549, 0, 0, 917550, 0, 0, 1048555, 0, 0, 1048556, 0, 0, 1048557, 0, 0, 1048558, 0, 0, 1048559, 0, 0, 1048560, 0, 0, 1048561, 0, 0, 1048562, 0, 0, 1048563, 0, 0, 1048564, 0, 0, 1048565, 0, 0, 1048566, 3, 65536, 1048567, 3, 65538, 1048568, 0, 65536, 1048569, 0, 196608, 1048570, 0, 65536, 1048571, 0, 196608, 1048572, 0, 196608, 1048573, 0, 131072, 1048574, 0, 196608, 1048575, 0, 0, 983040, 0, 196608, 983041, 0, 196608, 983042, 0, 0, 983043, 0, 65536, 983044, 0, 196608, 983045, 0, 0, 983046, 0, 131072, 983047, 0, 0, 983048, 0, 65536, 983049, 0, 0, 983050, 0, 196608, 983051, 0, 65536, 983052, 0, 196608, 983053, 0, 196608, 983054, 0, 196608, 983055, 0, 131072, 983056, 0, 65536, 983057, 0, 196608, 983058, 0, 196608, 983059, 0, 0, 983060, 0, 196608, 983061, 0, 65536, 983062, 0, 65536, 983063, 0, 131072, 983064, 0, 131072, 983065, 0, 65536, 983066, 0, 196608, 983067, 0, 196608, 983068, 0, 131072, 983069, 0, 65536, 983070, 0, 0, 983071, 0, 131072, 983072, 0, 196608, 983073, 0, 0, 983074, 3, 65536, 983075, 3, 65538, 983076, 0, 0, 983077, 0, 0, 983078, 0, 0, 983079, 0, 0, 983080, 0, 0, 983081, 0, 0, 983082, 0, 0, 983083, 0, 0, 983084, 0, 0, 983085, 0, 0, 983086, 0, 0, 1114091, 0, 0, 1114092, 0, 0, 1114093, 0, 0, 1114094, 0, 0, 1114095, 0, 0, 1114096, 0, 0, 1114097, 0, 0, 1114098, 0, 0, 1114099, 0, 0, 1114100, 0, 0, 1114101, 0, 0, 1114102, 3, 65536, 1114103, 3, 65538, 1114104, 0, 65536, 1114105, 0, 131072, 1114106, 0, 131072, 1114107, 0, 131072, 1114108, 0, 131072, 1114109, 0, 65536, 1114110, 0, 65536, 1114111, 0, 0, 1048576, 0, 65536, 1048577, 0, 196608, 1048578, 0, 0, 1048579, 0, 0, 1048580, 0, 65536, 1048581, 0, 0, 1048582, 0, 65536, 1048583, 0, 65536, 1048584, 0, 0, 1048585, 0, 131072, 1048586, 0, 196608, 1048587, 0, 196608, 1048588, 0, 196608, 1048589, 0, 196608, 1048590, 0, 131072, 1048591, 0, 65536, 1048592, 0, 196608, 1048593, 0, 0, 1048594, 0, 131072, 1048595, 0, 131072, 1048596, 0, 196608, 1048597, 0, 196608, 1048598, 0, 0, 1048599, 0, 0, 1048600, 0, 65536, 1048601, 0, 196608, 1048602, 0, 0, 1048603, 0, 0, 1048604, 0, 196608, 1048605, 0, 0, 1048606, 0, 196608, 1048607, 0, 131072, 1048608, 0, 131072, 1048609, 0, 0, 1048610, 3, 65536, 1048611, 3, 65538, 1048612, 0, 0, 1048613, 0, 0, 1048614, 0, 0, 1048615, 0, 0, 1048616, 0, 0, 1048617, 0, 0, 1048618, 0, 0, 1048619, 0, 0, 1048620, 0, 0, 1048621, 0, 0, 1048622, 0, 0, 1179627, 0, 0, 1179628, 0, 0, 1179629, 0, 0, 1179630, 0, 0, 1179631, 0, 0, 1179632, 0, 0, 1179633, 0, 0, 1179634, 0, 0, 1179635, 0, 0, 1179636, 0, 0, 1179637, 0, 0, 1179638, 3, 65536, 1179639, 3, 262144, 1179640, 3, 1, 1179641, 3, 1, 1179642, 3, 1, 1179643, 3, 1, 1179644, 3, 1, 1179645, 3, 1, 1179646, 3, 1, 1179647, 3, 1, 1114112, 3, 1, 1114113, 3, 1, 1114114, 3, 1, 1114115, 3, 1, 1114116, 3, 1, 1114117, 3, 1, 1114118, 3, 1, 1114119, 3, 1, 1114120, 3, 1, 1114121, 3, 1, 1114122, 3, 1, 1114123, 3, 1, 1114124, 3, 1, 1114125, 3, 1, 1114126, 3, 1, 1114127, 3, 1, 1114128, 3, 1, 1114129, 3, 1, 1114130, 3, 1, 1114131, 3, 1, 1114132, 3, 1, 1114133, 3, 1, 1114134, 3, 1, 1114135, 3, 1, 1114136, 3, 1, 1114137, 3, 1, 1114138, 3, 1, 1114139, 3, 1, 1114140, 3, 1, 1114141, 3, 1, 1114142, 3, 1, 1114143, 3, 1, 1114144, 3, 1, 1114145, 3, 1, 1114146, 3, 262145, 1114147, 3, 65538, 1114148, 0, 0, 1114149, 0, 0, 1114150, 0, 0, 1114151, 0, 0, 1114152, 0, 0, 1114153, 0, 0, 1114154, 0, 0, 1114155, 0, 0, 1114156, 0, 0, 1114157, 0, 0, 1114158, 0, 0, 1245163, 0, 0, 1245164, 0, 0, 1245165, 0, 0, 1245166, 0, 0, 1245167, 0, 0, 1245168, 0, 0, 1245169, 0, 0, 1245170, 0, 0, 1245171, 0, 0, 1245172, 0, 0, 1245173, 0, 0, 1245174, 3, 131072, 1245175, 3, 131073, 1245176, 3, 131073, 1245177, 3, 131073, 1245178, 3, 131073, 1245179, 3, 131073, 1245180, 3, 131073, 1245181, 3, 131073, 1245182, 3, 131073, 1245183, 3, 131073, 1179648, 3, 131073, 1179649, 3, 131073, 1179650, 3, 131073, 1179651, 3, 131073, 1179652, 3, 131073, 1179653, 3, 131073, 1179654, 3, 131073, 1179655, 3, 131073, 1179656, 3, 131073, 1179657, 3, 131073, 1179658, 3, 131073, 1179659, 3, 131073, 1179660, 3, 131073, 1179661, 3, 131073, 1179662, 3, 131073, 1179663, 3, 131073, 1179664, 3, 131073, 1179665, 3, 131073, 1179666, 3, 131073, 1179667, 3, 131073, 1179668, 3, 131073, 1179669, 3, 131073, 1179670, 3, 131073, 1179671, 3, 131073, 1179672, 3, 131073, 1179673, 3, 131073, 1179674, 3, 131073, 1179675, 3, 131073, 1179676, 3, 131073, 1179677, 3, 131073, 1179678, 3, 131073, 1179679, 3, 131073, 1179680, 3, 131073, 1179681, 3, 131073, 1179682, 3, 131073, 1179683, 3, 131074, 1179684, 0, 0, 1179685, 0, 0, 1179686, 0, 0, 1179687, 0, 0, 1179688, 0, 0, 1179689, 0, 0, 1179690, 0, 0, 1179691, 0, 0, 1179692, 0, 0, 1179693, 0, 0, 1179694, 0, 0, 1310699, 0, 0, 1310700, 0, 0, 1310701, 0, 0, 1310702, 0, 0, 1310703, 0, 0, 1310704, 0, 0, 1310705, 0, 0, 1310706, 0, 0, 1310707, 0, 0, 1310708, 0, 0, 1310709, 0, 0, 1310710, 0, 65536, 1310711, 0, 65536, 1310712, 0, 196608, 1310713, 0, 65536, 1310714, 0, 0, 1310715, 0, 0, 1310716, 0, 0, 1310717, 0, 0, 1310718, 0, 0, 1310719, 0, 65536, 1245184, 0, 131072, 1245185, 0, 196608, 1245186, 0, 65536, 1245187, 0, 65536, 1245188, 0, 196608, 1245189, 0, 65536, 1245190, 0, 65536, 1245191, 0, 65536, 1245192, 0, 65536, 1245193, 0, 0, 1245194, 0, 196608, 1245195, 0, 0, 1245196, 0, 131072, 1245197, 0, 0, 1245198, 0, 0, 1245199, 0, 131072, 1245200, 0, 131072, 1245201, 0, 131072, 1245202, 0, 196608, 1245203, 0, 196608, 1245204, 0, 131072, 1245205, 0, 65536, 1245206, 0, 65536, 1245207, 0, 196608, 1245208, 0, 196608, 1245209, 0, 131072, 1245210, 0, 65536, 1245211, 0, 131072, 1245212, 0, 196608, 1245213, 0, 65536, 1245214, 0, 196608, 1245215, 0, 131072, 1245216, 0, 65536, 1245217, 0, 65536, 1245218, 0, 196608, 1245219, 0, 65536, 1245220, 0, 0, 1245221, 0, 0, 1245222, 0, 0, 1245223, 0, 0, 1245224, 0, 0, 1245225, 0, 0, 1245226, 0, 0, 1245227, 0, 0, 1245228, 0, 0, 1245229, 0, 0, 1245230, 0, 0, 1376235, 0, 0, 1376236, 0, 0, 1376237, 0, 0, 1376238, 0, 0, 1376239, 0, 0, 1376240, 0, 0, 1376241, 0, 0, 1376242, 0, 0, 1376243, 0, 0, 1376244, 0, 0, 1376245, 0, 0, 1376246, 0, 0, 1376247, 0, 0, 1376248, 0, 0, 1376249, 0, 0, 1376250, 0, 0, 1376251, 0, 0, 1376252, 0, 0, 1376253, 0, 0, 1376254, 2, 0, 1376255, 2, 1, 1310720, 2, 1, 1310721, 2, 1, 1310722, 2, 1, 1310723, 2, 1, 1310724, 2, 1, 1310725, 2, 1, 1310726, 2, 1, 1310727, 2, 1, 1310728, 2, 1, 1310729, 2, 1, 1310730, 2, 1, 1310731, 2, 1, 1310732, 2, 1, 1310733, 2, 1, 1310734, 2, 1, 1310735, 2, 1, 1310736, 2, 1, 1310737, 2, 1, 1310738, 2, 1, 1310739, 2, 1, 1310740, 2, 1, 1310741, 2, 1, 1310742, 2, 1, 1310743, 2, 1, 1310744, 2, 1, 1310745, 2, 1, 1310746, 2, 1, 1310747, 2, 1, 1310748, 2, 1, 1310749, 2, 1, 1310750, 2, 1, 1310751, 2, 2, 1310752, 0, 0, 1310753, 0, 0, 1310754, 0, 0, 1310755, 0, 0, 1310756, 0, 0, 1310757, 0, 0, 1310758, 0, 0, 1310759, 0, 0, 1310760, 0, 0, 1310761, 0, 0, 1310762, 0, 0, 1310763, 0, 0, 1310764, 0, 0, 1310765, 0, 0, 1310766, 0, 0, 1441771, 0, 0, 1441772, 0, 0, 1441773, 0, 0, 1441774, 0, 0, 1441775, 0, 0, 1441776, 0, 0, 1441777, 0, 0, 1441778, 0, 0, 1441779, 0, 0, 1441780, 0, 0, 1441781, 0, 0, 1441782, 0, 0, 1441783, 0, 0, 1441784, 0, 0, 1441785, 0, 0, 1441786, 0, 0, 1441787, 0, 0, 1441788, 0, 0, 1441789, 0, 0, 1441790, 2, 65536, 1441791, 2, 65537, 1376256, 2, 65537, 1376257, 2, 65537, 1376258, 2, 65537, 1376259, 2, 65537, 1376260, 2, 65537, 1376261, 2, 65537, 1376262, 2, 65537, 1376263, 2, 65537, 1376264, 2, 65537, 1376265, 2, 65537, 1376266, 2, 65537, 1376267, 2, 65537, 1376268, 2, 65537, 1376269, 2, 65537, 1376270, 2, 65537, 1376271, 2, 65537, 1376272, 2, 65537, 1376273, 2, 65537, 1376274, 2, 65537, 1376275, 2, 65537, 1376276, 2, 65537, 1376277, 2, 65537, 1376278, 2, 65537, 1376279, 2, 65537, 1376280, 2, 65537, 1376281, 2, 65537, 1376282, 2, 65537, 1376283, 2, 65537, 1376284, 2, 65537, 1376285, 2, 65537, 1376286, 2, 65537, 1376287, 2, 65538, 1376288, 0, 0, 1376289, 0, 0, 1376290, 0, 0, 1376291, 0, 0, 1376292, 0, 0, 1376293, 0, 0, 1376294, 0, 0, 1376295, 0, 0, 1376296, 0, 0, 1376297, 0, 0, 1376298, 0, 0, 1376299, 0, 0, 1376300, 0, 0, 1376301, 0, 0, 1376302, 0, 0, 1507307, 0, 0, 1507308, 0, 0, 1507309, 0, 0, 1507310, 0, 0, 1507311, 0, 0, 1507312, 0, 0, 1507313, 0, 0, 1507314, 0, 0, 1507315, 0, 0, 1507316, 0, 0, 1507317, 0, 0, 1507318, 0, 0, 1507319, 0, 0, 1507320, 0, 0, 1507321, 0, 0, 1507322, 0, 0, 1507323, 0, 0, 1507324, 0, 0, 1507325, 0, 0, 1507326, 2, 65536, 1507327, 2, 65537, 1441792, 2, 65537, 1441793, 2, 65537, 1441794, 2, 65537, 1441795, 2, 65537, 1441796, 2, 65537, 1441797, 2, 65537, 1441798, 2, 65537, 1441799, 2, 65537, 1441800, 2, 65537, 1441801, 2, 65537, 1441802, 2, 65537, 1441803, 2, 65537, 1441804, 2, 65537, 1441805, 2, 65537, 1441806, 2, 65537, 1441807, 2, 65537, 1441808, 2, 65537, 1441809, 2, 65537, 1441810, 2, 65537, 1441811, 2, 65537, 1441812, 2, 65537, 1441813, 2, 65537, 1441814, 2, 65537, 1441815, 2, 65537, 1441816, 2, 65537, 1441817, 2, 65537, 1441818, 2, 65537, 1441819, 2, 65537, 1441820, 2, 65537, 1441821, 2, 65537, 1441822, 2, 65537, 1441823, 2, 65538, 1441824, 0, 0, 1441825, 0, 0, 1441826, 0, 0, 1441827, 0, 0, 1441828, 0, 0, 1441829, 0, 0, 1441830, 0, 0, 1441831, 0, 0, 1441832, 0, 0, 1441833, 0, 0, 1441834, 0, 0, 1441835, 0, 0, 1441836, 0, 0, 1441837, 0, 0, 1441838, 0, 0, 1572843, 0, 0, 1572844, 0, 0, 1572845, 0, 0, 1572846, 0, 0, 1572847, 0, 0, 1572848, 0, 0, 1572849, 0, 0, 1572850, 0, 0, 1572851, 0, 0, 1572852, 0, 0, 1572853, 0, 0, 1572854, 0, 0, 1572855, 0, 0, 1572856, 0, 0, 1572857, 0, 0, 1572858, 0, 0, 1572859, 0, 0, 1572860, 0, 0, 1572861, 0, 0, 1572862, 2, 65536, 1572863, 2, 65537, 1507328, 2, 65537, 1507329, 2, 65537, 1507330, 2, 65537, 1507331, 2, 65537, 1507332, 2, 65537, 1507333, 2, 65537, 1507334, 2, 65537, 1507335, 2, 65537, 1507336, 2, 65537, 1507337, 2, 65537, 1507338, 2, 65537, 1507339, 2, 65537, 1507340, 2, 65537, 1507341, 2, 65537, 1507342, 2, 65537, 1507343, 2, 65537, 1507344, 2, 65537, 1507345, 2, 65537, 1507346, 2, 65537, 1507347, 2, 65537, 1507348, 2, 65537, 1507349, 2, 65537, 1507350, 2, 65537, 1507351, 2, 65537, 1507352, 2, 65537, 1507353, 2, 65537, 1507354, 2, 65537, 1507355, 2, 65537, 1507356, 2, 65537, 1507357, 2, 65537, 1507358, 2, 65537, 1507359, 2, 65538, 1507360, 0, 0, 1507361, 0, 0, 1507362, 0, 0, 1507363, 0, 0, 1507364, 0, 0, 1507365, 0, 0, 1507366, 0, 0, 1507367, 0, 0, 1507368, 0, 0, 1507369, 0, 0, 1507370, 0, 0, 1507371, 0, 0, 1507372, 0, 0, 1507373, 0, 0, 1507374, 0, 0, 1638379, 0, 0, 1638380, 0, 0, 1638381, 0, 0, 1638382, 0, 0, 1638383, 0, 0, 1638384, 0, 0, 1638385, 0, 0, 1638386, 0, 0, 1638387, 0, 0, 1638388, 0, 0, 1638389, 0, 0, 1638390, 0, 0, 1638391, 0, 0, 1638392, 0, 0, 1638393, 0, 0, 1638394, 0, 0, 1638395, 0, 0, 1638396, 0, 0, 1638397, 0, 0, 1638398, 2, 65536, 1638399, 2, 65537, 1572864, 2, 65537, 1572865, 2, 65537, 1572866, 2, 65537, 1572867, 2, 65537, 1572868, 2, 65537, 1572869, 2, 65537, 1572870, 2, 65537, 1572871, 2, 65537, 1572872, 2, 65537, 1572873, 2, 65537, 1572874, 2, 65537, 1572875, 2, 65537, 1572876, 2, 65537, 1572877, 2, 65537, 1572878, 2, 65537, 1572879, 2, 65537, 1572880, 2, 65537, 1572881, 2, 65537, 1572882, 2, 65537, 1572883, 2, 65537, 1572884, 2, 65537, 1572885, 2, 65537, 1572886, 2, 65537, 1572887, 2, 65537, 1572888, 2, 65537, 1572889, 2, 65537, 1572890, 2, 65537, 1572891, 2, 65537, 1572892, 2, 65537, 1572893, 2, 65537, 1572894, 2, 65537, 1572895, 2, 65538, 1572896, 0, 0, 1572897, 0, 0, 1572898, 0, 0, 1572899, 0, 0, 1572900, 0, 0, 1572901, 0, 0, 1572902, 0, 0, 1572903, 0, 0, 1572904, 0, 0, 1572905, 0, 0, 1572906, 0, 0, 1572907, 0, 0, 1572908, 0, 0, 1572909, 0, 0, 1572910, 0, 0, 1703915, 0, 0, 1703916, 0, 0, 1703917, 0, 0, 1703918, 0, 0, 1703919, 0, 0, 1703920, 0, 0, 1703921, 0, 0, 1703922, 0, 0, 1703923, 0, 0, 1703924, 0, 0, 1703925, 0, 0, 1703926, 0, 0, 1703927, 0, 0, 1703928, 0, 0, 1703929, 0, 0, 1703930, 0, 0, 1703931, 0, 0, 1703932, 0, 0, 1703933, 0, 0, 1703934, 2, 65536, 1703935, 2, 65537, 1638400, 2, 65537, 1638401, 2, 65537, 1638402, 2, 65537, 1638403, 2, 65537, 1638404, 2, 65537, 1638405, 2, 65537, 1638406, 2, 65537, 1638407, 2, 65537, 1638408, 2, 65537, 1638409, 2, 65537, 1638410, 2, 65537, 1638411, 2, 65537, 1638412, 2, 65537, 1638413, 2, 65537, 1638414, 2, 65537, 1638415, 2, 65537, 1638416, 2, 65537, 1638417, 2, 65537, 1638418, 2, 65537, 1638419, 2, 65537, 1638420, 2, 65537, 1638421, 2, 65537, 1638422, 2, 65537, 1638423, 2, 65537, 1638424, 2, 65537, 1638425, 2, 65537, 1638426, 2, 65537, 1638427, 2, 65537, 1638428, 2, 65537, 1638429, 2, 65537, 1638430, 2, 65537, 1638431, 2, 65538, 1638432, 0, 0, 1638433, 0, 0, 1638434, 0, 0, 1638435, 0, 0, 1638436, 0, 0, 1638437, 0, 0, 1638438, 0, 0, 1638439, 0, 0, 1638440, 0, 0, 1638441, 0, 0, 1638442, 0, 0, 1638443, 0, 0, 1638444, 0, 0, 1638445, 0, 0, 1638446, 0, 0, 1769451, 0, 0, 1769452, 0, 0, 1769453, 0, 0, 1769454, 0, 0, 1769455, 0, 0, 1769456, 0, 0, 1769457, 0, 0, 1769458, 0, 0, 1769459, 0, 0, 1769460, 0, 0, 1769461, 0, 0, 1769462, 0, 0, 1769463, 0, 0, 1769464, 0, 0, 1769465, 0, 0, 1769466, 0, 0, 1769467, 0, 0, 1769468, 0, 0, 1769469, 0, 0, 1769470, 2, 65536, 1769471, 2, 65537, 1703936, 2, 65537, 1703937, 2, 65537, 1703938, 2, 65537, 1703939, 2, 65537, 1703940, 2, 65537, 1703941, 2, 65537, 1703942, 2, 65537, 1703943, 2, 65537, 1703944, 2, 65537, 1703945, 2, 65537, 1703946, 2, 65537, 1703947, 2, 65537, 1703948, 2, 65537, 1703949, 2, 65537, 1703950, 2, 65537, 1703951, 2, 65537, 1703952, 2, 65537, 1703953, 2, 65537, 1703954, 2, 65537, 1703955, 2, 65537, 1703956, 2, 65537, 1703957, 2, 65537, 1703958, 2, 65537, 1703959, 2, 65537, 1703960, 2, 65537, 1703961, 2, 65537, 1703962, 2, 65537, 1703963, 2, 65537, 1703964, 2, 65537, 1703965, 2, 65537, 1703966, 2, 65537, 1703967, 2, 65538, 1703968, 0, 0, 1703969, 0, 0, 1703970, 0, 0, 1703971, 0, 0, 1703972, 0, 0, 1703973, 0, 0, 1703974, 0, 0, 1703975, 0, 0, 1703976, 0, 0, 1703977, 0, 0, 1703978, 0, 0, 1703979, 0, 0, 1703980, 0, 0, 1703981, 0, 0, 1703982, 0, 0, 1835006, 2, 65536, 1835007, 2, 65537, 1769472, 2, 65537, 1769473, 2, 65537, 1769474, 2, 65537, 1769475, 2, 65537, 1769476, 2, 65537, 1769477, 2, 65537, 1769478, 2, 65537, 1769479, 2, 65537, 1769480, 2, 65537, 1769481, 2, 65537, 1769482, 2, 65537, 1769483, 2, 65537, 1769484, 2, 65537, 1769485, 2, 65537, 1769486, 2, 65537, 1769487, 2, 65537, 1769488, 2, 65537, 1769489, 2, 65537, 1769490, 2, 65537, 1769491, 2, 65537, 1769492, 2, 65537, 1769493, 2, 65537, 1769494, 2, 65537, 1769495, 2, 65537, 1769496, 2, 65537, 1769497, 2, 65537, 1769498, 2, 65537, 1769499, 2, 65537, 1769500, 2, 65537, 1769501, 2, 65537, 1769502, 2, 65537, 1769503, 2, 65538, 1900542, 2, 65536, 1900543, 2, 65537, 1835008, 2, 65537, 1835009, 2, 65537, 1835010, 2, 65537, 1835011, 2, 65537, 1835012, 2, 65537, 1835013, 2, 65537, 1835014, 2, 65537, 1835015, 2, 65537, 1835016, 2, 65537, 1835017, 2, 65537, 1835018, 2, 65537, 1835019, 2, 65537, 1835020, 2, 65537, 1835021, 2, 65537, 1835022, 2, 65537, 1835023, 2, 65537, 1835024, 2, 65537, 1835025, 2, 65537, 1835026, 2, 65537, 1835027, 2, 65537, 1835028, 2, 65537, 1835029, 2, 65537, 1835030, 2, 65537, 1835031, 2, 65537, 1835032, 2, 65537, 1835033, 2, 65537, 1835034, 2, 65537, 1835035, 2, 65537, 1835036, 2, 65537, 1835037, 2, 65537, 1835038, 2, 65537, 1835039, 2, 65538, 1966078, 2, 65536, 1966079, 2, 65537, 1900544, 2, 65537, 1900545, 2, 65537, 1900546, 2, 65537, 1900547, 2, 65537, 1900548, 2, 65537, 1900549, 2, 65537, 1900550, 2, 65537, 1900551, 2, 65537, 1900552, 2, 65537, 1900553, 2, 65537, 1900554, 2, 65537, 1900555, 2, 65537, 1900556, 2, 65537, 1900557, 2, 65537, 1900558, 2, 65537, 1900559, 2, 65537, 1900560, 2, 65537, 1900561, 2, 65537, 1900562, 2, 65537, 1900563, 2, 65537, 1900564, 2, 65537, 1900565, 2, 65537, 1900566, 2, 65537, 1900567, 2, 65537, 1900568, 2, 65537, 1900569, 2, 65537, 1900570, 2, 65537, 1900571, 2, 65537, 1900572, 2, 65537, 1900573, 2, 65537, 1900574, 2, 65537, 1900575, 2, 65538, 2031614, 2, 65536, 2031615, 2, 65537, 1966080, 2, 65537, 1966081, 2, 65537, 1966082, 2, 65537, 1966083, 2, 65537, 1966084, 2, 65537, 1966085, 2, 65537, 1966086, 2, 65537, 1966087, 2, 65537, 1966088, 2, 65537, 1966089, 2, 65537, 1966090, 2, 65537, 1966091, 2, 65537, 1966092, 2, 65537, 1966093, 2, 65537, 1966094, 2, 65537, 1966095, 2, 65537, 1966096, 2, 65537, 1966097, 2, 65537, 1966098, 2, 65537, 1966099, 2, 65537, 1966100, 2, 65537, 1966101, 2, 65537, 1966102, 2, 65537, 1966103, 2, 65537, 1966104, 2, 65537, 1966105, 2, 65537, 1966106, 2, 65537, 1966107, 2, 65537, 1966108, 2, 65537, 1966109, 2, 65537, 1966110, 2, 65537, 1966111, 2, 65538, 2097150, 2, 65536, 2097151, 2, 65537, 2031616, 2, 65537, 2031617, 2, 65537, 2031618, 2, 65537, 2031619, 2, 65537, 2031620, 2, 65537, 2031621, 2, 65537, 2031622, 2, 65537, 2031623, 2, 65537, 2031624, 2, 65537, 2031625, 2, 65537, 2031626, 2, 65537, 2031627, 2, 65537, 2031628, 2, 65537, 2031629, 2, 65537, 2031630, 2, 65537, 2031631, 2, 65537, 2031632, 2, 65537, 2031633, 2, 65537, 2031634, 2, 65537, 2031635, 2, 65537, 2031636, 2, 65537, 2031637, 2, 65537, 2031638, 2, 65537, 2031639, 2, 65537, 2031640, 2, 65537, 2031641, 2, 65537, 2031642, 2, 65537, 2031643, 2, 65537, 2031644, 2, 65537, 2031645, 2, 65537, 2031646, 2, 65537, 2031647, 2, 65538, 2162686, 2, 65536, 2162687, 2, 65537, 2097152, 2, 65537, 2097153, 2, 65537, 2097154, 2, 65537, 2097155, 2, 65537, 2097156, 2, 65537, 2097157, 2, 65537, 2097158, 2, 65537, 2097159, 2, 65537, 2097160, 2, 65537, 2097161, 2, 65537, 2097162, 2, 65537, 2097163, 2, 65537, 2097164, 2, 65537, 2097165, 2, 65537, 2097166, 2, 65537, 2097167, 2, 65537, 2097168, 2, 65537, 2097169, 2, 65537, 2097170, 2, 65537, 2097171, 2, 65537, 2097172, 2, 65537, 2097173, 2, 65537, 2097174, 2, 65537, 2097175, 2, 65537, 2097176, 2, 65537, 2097177, 2, 65537, 2097178, 2, 65537, 2097179, 2, 65537, 2097180, 2, 65537, 2097181, 2, 65537, 2097182, 2, 65537, 2097183, 2, 65538, 2228222, 2, 131072, 2228223, 2, 131073, 2162688, 2, 131073, 2162689, 2, 131073, 2162690, 2, 131073, 2162691, 2, 131073, 2162692, 2, 131073, 2162693, 2, 131073, 2162694, 2, 131073, 2162695, 2, 131073, 2162696, 2, 131073, 2162697, 2, 131073, 2162698, 2, 131073, 2162699, 2, 131073, 2162700, 2, 131073, 2162701, 2, 131073, 2162702, 2, 131073, 2162703, 2, 131073, 2162704, 2, 131073, 2162705, 2, 131073, 2162706, 2, 131073, 2162707, 2, 131073, 2162708, 2, 131073, 2162709, 2, 131073, 2162710, 2, 131073, 2162711, 2, 131073, 2162712, 2, 131073, 2162713, 2, 131073, 2162714, 2, 131073, 2162715, 2, 131073, 2162716, 2, 131073, 2162717, 2, 131073, 2162718, 2, 131073, 2162719, 2, 131074 )
